<svg width="32" height="32" viewBox="0 0 32 32" fill="none" xmlns="http://www.w3.org/2000/svg">
<g id="&#240;&#159;&#145;&#128; Icon">
<path id="Union" fill-rule="evenodd" clip-rule="evenodd" d="M22.8321 7.55469L23.3867 6.72264L21.7226 5.61324L21.1679 6.44529L9.16795 24.4453L8.61325 25.2773L10.2773 26.3867L10.8321 25.5547L22.8321 7.55469ZM9 5.99998V6.99998V8.99998H11H12V11H11H9V13V14H7V13V11H5H4V8.99998H5H7V6.99998V5.99998H9ZM21 21H20V23H21H27H28V21H27H21Z" fill="white"/>
</g>
</svg>
